C:\Users\Bel_Riose\Documents\NetBeansProjects\GL_math_painter\src\main\java\ru\bel_riose\gl_math_painter\Material.java
C:\Users\Bel_Riose\Documents\NetBeansProjects\GL_math_painter\src\main\java\ru\bel_riose\gl_math_painter\GlCamera.java
C:\Users\Bel_Riose\Documents\NetBeansProjects\GL_math_painter\src\main\java\ru\bel_riose\gl_math_painter\Function.java
C:\Users\Bel_Riose\Documents\NetBeansProjects\GL_math_painter\src\main\java\ru\bel_riose\gl_math_painter\GlRenderer.java
C:\Users\Bel_Riose\Documents\NetBeansProjects\GL_math_painter\src\main\java\ru\bel_riose\gl_math_painter\Rectangle.java
C:\Users\Bel_Riose\Documents\NetBeansProjects\GL_math_painter\src\main\java\ru\bel_riose\gl_math_painter\MeshCreator.java
C:\Users\Bel_Riose\Documents\NetBeansProjects\GL_math_painter\src\main\java\ru\bel_riose\gl_math_painter\UserConfig.java
C:\Users\Bel_Riose\Documents\NetBeansProjects\GL_math_painter\src\main\java\ru\bel_riose\gl_math_painter\Utils.java
C:\Users\Bel_Riose\Documents\NetBeansProjects\GL_math_painter\src\main\java\ru\bel_riose\gl_math_painter\LightSource.java
C:\Users\Bel_Riose\Documents\NetBeansProjects\GL_math_painter\src\main\java\ru\bel_riose\gl_math_painter\MathUtils.java
C:\Users\Bel_Riose\Documents\NetBeansProjects\GL_math_painter\src\main\java\ru\bel_riose\gl_math_painter\App.java
